Tasks;PIP p;PIP v;PCP p;PCP v;IPCP p;IPCP v;SRP p;SRP v;MPCP p;MPCP v;MSRP p;MSRP v
1;533.29411;1055.58823;545.64706;1022.64706;628.58823;1045;780.35294;1227.94117;638.0000012;1020.294119;974.4705894;1517.352942
2;564.4705788;1070.29411;563.2941088;1090.29411;638.5882288;1087.94117;792.7058788;1217.94117;645.6470588;1480.294118;1088;1497.352941
3;555.0588224;1065.588228;552.7058824;1083.235288;645.6470524;1124.999998;817.9999924;1235.588228;712.7058824;1582.647059;1029.764706;1502.647059
4;556.2352877;1065.588228;548.5882277;1085.588228;638.5882277;1085.588228;890.3529377;1235.588228;713.2941177;1563.235294;1042.705882;1497.941176
5;553.2941177;1065.588228;553.2941177;1085.588228;638.5882277;1085.588228;868.5882277;1242.647058;713.2941177;1562.647059;1080.352941;1567.941176
6;571.1188224;1108.96111;568.7658824;1128.96111;654.0599924;1128.96111;868.7658824;1308.96111;728.7658824;1608.372882;1154.06;1626.019941
7;588.3552877;1142.922228;585.4141177;1162.922228;673.0611677;1162.922228;900.1199977;1332.922228;816.5905883;1645.275176;1175.414118;1712.334
8;603.8270577;1186.29511;601.4741177;1206.29511;686.7682277;1206.29511;969.1211677;1376.29511;764.4152942;1695.706882;1179.121176;1688.059824
9;619.8870577;1222.609168;617.5341177;1240.256228;705.1811677;1240.256228;915.1811677;1442.609168;;;;
10;638.8882288;1258.923228;635.9470588;1278.923228;723.5941088;1278.923228;983.0058788;1473.629118;;;;
11;652.0070577;1302.29611;649.6541177;1322.29611;737.3011677;1322.29611;964.9482277;1529.35494;;;;
12;668.0670577;1336.257228;665.7141177;1356.257228;751.0082277;1356.257228;1020.419998;1553.904288;;;;
13;681.7741177;1374.924228;684.7152877;1394.924228;769.4211677;1394.924228;1014.127058;1601.983058;;;;
14;700.7752877;1418.29711;700.1870577;1438.29711;782.5399977;1470.65005;1040.187058;1697.70888;;;;
15;718.5999988;1456.96411;716.2470588;1476.96411;800.9529388;1476.96411;1086.247059;1681.67;;;;
16;732.3070524;1490.925228;731.7188224;1510.925228;817.0129324;1510.925228;1129.365882;1733.278168;;;;
17;748.3670524;1534.29811;747.7788224;1554.29811;830.7199924;1554.29811;1130.131762;1796.65105;;;;
18;764.4270577;1570.023934;765.0152877;1590.023934;847.3682277;1590.023934;1172.074118;1830.023934;;;;
19;778.1341177;1606.926228;778.1341177;1626.926228;865.1929377;1626.926228;1230.487058;1853.985058;;;;
20;799.5882277;1645.588228;796.6470577;1665.588228;881.9411677;1665.588228;1251.352938;1900.294118;;;;
